youtube-tutorials - spatial analysis
…
In one fell swoop

guerry |> 
  transmute(
    nb = st_contiguity(geometry),
    wt = st_weights(nb),
    crime_lag = st_lag(crime_pers, nb, wt)
  )

Simple feature collection with 85 features and 3 fields
Geometry type: MULTIPOLYGON
Dimension:     XY
Bounding box:  xmin: 47680 ymin: 1703258 xmax: 1031401 ymax: 2677441
CRS:           NA
# A tibble: 85 × 4
   nb        wt        crime_lag                    geometry
 * <nb>      <list>        <dbl>              <MULTIPOLYGON>
 1 <int [4]> <dbl [4]>    23048. (((801150 2092615, 800669 …
 2 <int [6]> <dbl [6]>    26920. (((729326 2521619, 729320 …
 3 <int [6]> <dbl [6]>    26195. (((710830 2137350, 711746 …
 4 <int [4]> <dbl [4]>    14401. (((882701 1920024, 882408 …
 5 <int [3]> <dbl [3]>    15039. (((886504 1922890, 885733 …
 6 <int [7]> <dbl [7]>    15749  (((747008 1925789, 746630 …
 7 <int [3]> <dbl [3]>    22112. (((818893 2514767, 818614 …
 8 <int [3]> <dbl [3]>    13672. (((509103 1747787, 508820 …
 9 <int [5]> <dbl [5]>    22859. (((775400 2345600, 775068 …
10 <int [5]> <dbl [5]>    11475. (((626230 1810121, 626269 …
# … with 75 more rows
# ℹ Use `print(n = ...)` to see more rows
…
