youtube-tutorials - Hot Spot Analysis
…
Example data

Simple feature collection with 49 features and 1 field
Geometry type: POLYGON
Dimension:     XY
Bounding box:  xmin: 0 ymin: 0 xmax: 7 ymax: 7
CRS:           NA
# A tibble: 49 × 2
       x                    geometry
   <dbl>                   <POLYGON>
 1 5.70  ((0 0, 1 0, 1 1, 0 1, 0 0))
 2 4.71  ((1 0, 2 0, 2 1, 1 1, 1 0))
 3 2.94  ((2 0, 3 0, 3 1, 2 1, 2 0))
 4 1.87  ((3 0, 4 0, 4 1, 3 1, 3 0))
 5 2.46  ((4 0, 5 0, 5 1, 4 1, 4 0))
 6 2.00  ((5 0, 6 0, 6 1, 5 1, 5 0))
 7 0.408 ((6 0, 7 0, 7 1, 6 1, 6 0))
 8 3.96  ((0 1, 1 1, 1 2, 0 2, 0 1))
 9 4.00  ((1 1, 2 1, 2 2, 1 2, 1 1))
10 1.93  ((2 1, 3 1, 3 2, 2 2, 2 1))
# … with 39 more rows
# ℹ Use `print(n = ...)` to see more rows
…
grd_nb <- grd |> 
  mutate(
    nb = st_contiguity(geometry),
    wt = st_weights(nb),
    x_lag = st_lag(x, nb, wt)
  )

The numerator

Simple feature collection with 49 features and 5 fields
Geometry type: POLYGON
Dimension:     XY
Bounding box:  xmin: 0 ymin: 0 xmax: 7 ymax: 7
CRS:           NA
# A tibble: 49 × 6
                      geometry    id nb        wt            x x_lag
 *                   <POLYGON> <int> <nb>      <list>    <dbl> <dbl>
 1 ((0 0, 1 0, 1 1, 0 1, 0 0))     1 <int [3]> <dbl [3]> 5.70  4.22 
 2 ((1 0, 2 0, 2 1, 1 1, 1 0))     2 <int [5]> <dbl [5]> 4.71  3.71 
 3 ((2 0, 3 0, 3 1, 2 1, 2 0))     3 <int [5]> <dbl [5]> 2.94  3.14 
 4 ((3 0, 4 0, 4 1, 3 1, 3 0))     4 <int [5]> <dbl [5]> 1.87  2.51 
 5 ((4 0, 5 0, 5 1, 4 1, 4 0))     5 <int [5]> <dbl [5]> 2.46  1.82 
 6 ((5 0, 6 0, 6 1, 5 1, 5 0))     6 <int [5]> <dbl [5]> 2.00  1.07 
 7 ((6 0, 7 0, 7 1, 6 1, 6 0))     7 <int [3]> <dbl [3]> 0.408 0.807
 8 ((0 1, 1 1, 1 2, 0 2, 0 1))     8 <int [5]> <dbl [5]> 3.96  3.74 
 9 ((1 1, 2 1, 2 2, 1 2, 1 1))     9 <int [8]> <dbl [8]> 4.00  3.17 
10 ((2 1, 3 1, 3 2, 2 2, 2 1))    10 <int [8]> <dbl [8]> 1.93  2.84 
# … with 39 more rows
# ℹ Use `print(n = ...)` to see more rows
…
grd_nb |> 
  mutate(
    complete_nb = st_complete_nb(n()),
    wt_b = st_weights(complete_nb, style = "B"),
    sum_xj = st_lag(x, complete_nb, wt_b)
  ) |> 
  select(x, x_lag, sum_xj)

Simple feature collection with 49 features and 3 fields
Geometry type: POLYGON
Dimension:     XY
Bounding box:  xmin: 0 ymin: 0 xmax: 7 ymax: 7
CRS:           NA
# A tibble: 49 × 4
       x x_lag sum_xj                    geometry
   <dbl> <dbl>  <dbl>                   <POLYGON>
 1 5.70  4.22    92.6 ((0 0, 1 0, 1 1, 0 1, 0 0))
 2 4.71  3.71    93.6 ((1 0, 2 0, 2 1, 1 1, 1 0))
 3 2.94  3.14    95.4 ((2 0, 3 0, 3 1, 2 1, 2 0))
 4 1.87  2.51    96.5 ((3 0, 4 0, 4 1, 3 1, 3 0))
 5 2.46  1.82    95.9 ((4 0, 5 0, 5 1, 4 1, 4 0))
 6 2.00  1.07    96.3 ((5 0, 6 0, 6 1, 5 1, 5 0))
 7 0.408 0.807   97.9 ((6 0, 7 0, 7 1, 6 1, 6 0))
 8 3.96  3.74    94.4 ((0 1, 1 1, 1 2, 0 2, 0 1))
 9 4.00  3.17    94.3 ((1 1, 2 1, 2 2, 1 2, 1 1))
10 1.93  2.84    96.4 ((2 1, 3 1, 3 2, 2 2, 2 1))
# … with 39 more rows
# ℹ Use `print(n = ...)` to see more rows
…
grd_nb |> 
  mutate(
    complete_nb = st_complete_nb(n()),
    wt_b = st_weights(complete_nb, style = "B"),
    sum_xj = st_lag(x, complete_nb, wt_b),
    gi = scale(x_lag / sum_xj)
  ) |> 
  select(x, x_lag, sum_xj, gi)

Simple feature collection with 49 features and 4 fields
Geometry type: POLYGON
Dimension:     XY
Bounding box:  xmin: 0 ymin: 0 xmax: 7 ymax: 7
CRS:           NA
# A tibble: 49 × 5
       x x_lag sum_xj gi[,1]                    geometry
   <dbl> <dbl>  <dbl>  <dbl>                   <POLYGON>
 1 5.70  4.22    92.6  3.22  ((0 0, 1 0, 1 1, 0 1, 0 0))
 2 4.71  3.71    93.6  2.44  ((1 0, 2 0, 2 1, 1 1, 1 0))
 3 2.94  3.14    95.4  1.57  ((2 0, 3 0, 3 1, 2 1, 2 0))
 4 1.87  2.51    96.5  0.681 ((3 0, 4 0, 4 1, 3 1, 3 0))
 5 2.46  1.82    95.9 -0.235 ((4 0, 5 0, 5 1, 4 1, 4 0))
 6 2.00  1.07    96.3 -1.25  ((5 0, 6 0, 6 1, 5 1, 5 0))
 7 0.408 0.807   97.9 -1.62  ((6 0, 7 0, 7 1, 6 1, 6 0))
 8 3.96  3.74    94.4  2.44  ((0 1, 1 1, 1 2, 0 2, 0 1))
 9 4.00  3.17    94.3  1.67  ((1 1, 2 1, 2 2, 1 2, 1 1))
10 1.93  2.84    96.4  1.13  ((2 1, 3 1, 3 2, 2 2, 2 1))
# … with 39 more rows
# ℹ Use `print(n = ...)` to see more rows
…
Simple feature collection with 49 features and 5 fields
Geometry type: POLYGON
Dimension:     XY
Bounding box:  xmin: 0 ymin: 0 xmax: 7 ymax: 7
CRS:           NA
# A tibble: 49 × 6
   nb        wt        x_lag denom  gi[,1]                    geometry
 * <nb>      <list>    <dbl> <dbl>   <dbl>                   <POLYGON>
 1 <int [4]> <dbl [4]> 4.59   98.3  3.46   ((0 0, 1 0, 1 1, 0 1, 0 0))
 2 <int [6]> <dbl [6]> 3.87   98.3  2.50   ((1 0, 2 0, 2 1, 1 1, 1 0))
 3 <int [6]> <dbl [6]> 3.10   98.3  1.47   ((2 0, 3 0, 3 1, 2 1, 2 0))
 4 <int [6]> <dbl [6]> 2.40   98.3  0.539  ((3 0, 4 0, 4 1, 3 1, 3 0))
 5 <int [6]> <dbl [6]> 1.92   98.3 -0.0988 ((4 0, 5 0, 5 1, 4 1, 4 0))
 6 <int [6]> <dbl [6]> 1.22   98.3 -1.03   ((5 0, 6 0, 6 1, 5 1, 5 0))
 7 <int [4]> <dbl [4]> 0.707  98.3 -1.72   ((6 0, 7 0, 7 1, 6 1, 6 0))
 8 <int [6]> <dbl [6]> 3.77   98.3  2.37   ((0 1, 1 1, 1 2, 0 2, 0 1))
 9 <int [9]> <dbl [9]> 3.26   98.3  1.69   ((1 1, 2 1, 2 2, 1 2, 1 1))
10 <int [9]> <dbl [9]> 2.74   98.3  0.992  ((2 1, 3 1, 3 2, 2 2, 2 1))
# … with 39 more rows
# ℹ Use `print(n = ...)` to see more rows
…
