youtube-tutorials - script
…
[1] "drt2yyy1cxwy"

Next, using the location we can query Google Maps looking for cafes using the Park Street coordinates.

res <- text_search(
  location = park_street_loc,
  query = "espresso",
  type = "cafe"
)

res[c("name", "rating", "price_level")]

# A tibble: 60 × 3
   name                 rating price_level
   <chr>                 <dbl>       <int>
 1 Espresso Love           4.4           1
 2 Ogawa Coffee            4.6           2
 3 Render Coffee           4.4           1
 4 Kohi Coffee Company     4.7           1
 5 Starbucks               3.9           2
 6 Caffè Nero              4.2           2
 7 George Howell Coffee    4.6           2
 8 Caffè Nero              4.4           2
 9 Starbucks               3.6           2
10 Caffè Nero              4.1           2
# ℹ 50 more rows
…
