youtube-tutorials - Rust goes brrrr
…
Would it be faster in Rust?

Yeah, probably.

Is it worth it?

🤔💭

Split is vectorized….

dplyr::select(path_data, 1:2)

# A tibble: 500 × 2
   path_str               date_str                                            
   <chr>                  <chr>                                               
 1 tiktok>blog>gs>fb>rtl  2023-04-17>2023-02-25>2023-01-24>2023-03-12>2023-03…
 2 yt>blog>gs>fb>gda      2023-01-18>2023-01-27>2023-02-19>2023-01-01>2023-04…
 3 fb>gs>yt               2023-04-21>2023-02-20>2023-03-23                    
 4 gda>yt>tiktok>blog     2023-04-24>2023-03-01>2023-05-03>2023-04-29         
 5 rtl                    2023-02-20                                          
 6 gda>yt>rtl>tiktok      2023-02-04>2023-02-26>2023-01-09>2023-03-22         
 7 tiktok>blog            2023-03-06>2023-04-20                               
 8 gda>tiktok>rtl>yt>gs   2023-05-02>2023-03-25>2023-04-26>2023-03-19>2023-03…
 9 tiktok>rtl>blog>gda>gs 2023-04-16>2023-04-24>2023-03-31>2023-02-10>2023-01…
10 gda>fb                 2023-01-23>2023-05-05                               
# ℹ 490 more rows
…
